{
  "uid" : "55271c1c6c21303",
  "name" : "GET - Listar enderecos",
  "fullName" : "GET - Listar enderecos",
  "historyId" : "36bcd067cede5e6f22a4911800040888",
  "time" : {
    "start" : 1668800676338,
    "stop" : 1668800676423,
    "duration" : 85
  },
  "status" : "passed",
  "flaky" : false,
  "newFailed" : false,
  "beforeStages" : [ ],
  "testStage" : {
    "status" : "passed",
    "steps" : [ {
      "name" : "GET 200 http://vemser-dbc.dbccompany.com.br:39000/vemser/dbc-pessoa-api/endereco",
      "time" : {
        "start" : 1668800676347,
        "stop" : 1668800676420,
        "duration" : 73
      },
      "status" : "passed",
      "steps" : [ ],
      "attachments" : [ ],
      "parameters" : [ ],
      "stepsCount" : 0,
      "hasContent" : false,
      "shouldDisplayMessage" : false,
      "attachmentsCount" : 0
    }, {
      "name" : "as (\"response\")",
      "time" : {
        "start" : 1668800676420,
        "stop" : 1668800676420,
        "duration" : 0
      },
      "status" : "passed",
      "steps" : [ ],
      "attachments" : [ ],
      "parameters" : [ ],
      "stepsCount" : 0,
      "hasContent" : false,
      "shouldDisplayMessage" : false,
      "attachmentsCount" : 0
    }, {
      "name" : "get @response",
      "time" : {
        "start" : 1668800676420,
        "stop" : 1668800676421,
        "duration" : 1
      },
      "status" : "passed",
      "steps" : [ ],
      "attachments" : [ ],
      "parameters" : [ ],
      "stepsCount" : 0,
      "hasContent" : false,
      "shouldDisplayMessage" : false,
      "attachmentsCount" : 0
    }, {
      "name" : "assert expected **{ Object (totalElements, totalPages, ...) }** not to be empty",
      "time" : {
        "start" : 1668800676423,
        "stop" : 1668800676423,
        "duration" : 0
      },
      "status" : "passed",
      "steps" : [ ],
      "attachments" : [ ],
      "parameters" : [ {
        "name" : "actual",
        "value" : "{\n  \"totalElements\": 95,\n  \"totalPages\": 5,\n  \"page\": 0,\n  \"size\": 20,\n  \"content\": [\n    {\n      \"idPessoa\": 4091,\n      \"tipo\": \"COMERCIAL\",\n      \"logradouro\": \"Rua Deputado Álvares Florence\",\n      \"numero\": 1302,\n      \"complemento\": \"ap 504\",\n      \"cep\": \"09890530\",\n      \"cidade\": \"São Bernardo do Campo\",\n      \"estado\": \"SP\",\n      \"pais\": \"Brasil\",\n      \"idEndereco\": 343\n    },\n    {\n      \"idPessoa\": 4091,\n      \"tipo\": \"COMERCIAL\",\n      \"logradouro\": \"Rua Deputado Álvares Florence\",\n      \"numero\": 1302,\n      \"complemento\": \"ap 504\",\n      \"cep\": \"09890530\",\n      \"cidade\": \"São Bernardo do Campo\",\n      \"estado\": \"SP\",\n      \"pais\": \"Brasil\",\n      \"idEndereco\": 346\n    },\n    {\n      \"idPessoa\": 4091,\n      \"tipo\": \"COMERCIAL\",\n      \"logradouro\": \"Rua Deputado Álvares Florence\",\n      \"numero\": 1302,\n      \"complemento\": \"ap 504\",\n      \"cep\": \"09890530\",\n      \"cidade\": \"São Bernardo do Campo\",\n      \"estado\": \"SP\",\n      \"pais\": \"Brasil\",\n      \"idEndereco\": 349\n    },\n    {\n      \"idPessoa\": 4091,\n      \"tipo\": \"COMERCIAL\",\n      \"logradouro\": \"Rua Deputado Álvares Florence\",\n      \"numero\": 1302,\n      \"complemento\": \"ap 504\",\n      \"cep\": \"09890530\",\n      \"cidade\": \"São Bernardo do Campo\",\n      \"estado\": \"SP\",\n      \"pais\": \"Brasil\",\n      \"idEndereco\": 352\n    },\n    {\n      \"idPessoa\": 4091,\n      \"tipo\": \"COMERCIAL\",\n      \"logradouro\": \"Rua Deputado Álvares Florence\",\n      \"numero\": 1302,\n      \"complemento\": \"ap 504\",\n      \"cep\": \"09890530\",\n      \"cidade\": \"São Bernardo do Campo\",\n      \"estado\": \"SP\",\n      \"pais\": \"Brasil\",\n      \"idEndereco\": 355\n    },\n    {\n      \"idPessoa\": 4091,\n      \"tipo\": \"COMERCIAL\",\n      \"logradouro\": \"Rua Deputado Álvares Florence\",\n      \"numero\": 1302,\n      \"complemento\": \"ap 504\",\n      \"cep\": \"09890530\",\n      \"cidade\": \"teste\",\n      \"estado\": \"SP\",\n      \"pais\": \"Brasil\",\n      \"idEndereco\": 358\n    },\n    {\n      \"idPessoa\": 4091,\n      \"tipo\": \"COMERCIAL\",\n      \"logradouro\": \"Rua Deputado Álvares Florence\",\n      \"numero\": 1302,\n      \"complemento\": \"ap 504\",\n      \"cep\": \"09890530\",\n      \"cidade\": \"teste\",\n      \"estado\": \"SP\",\n      \"pais\": \"Brasil\",\n      \"idEndereco\": 361\n    },\n    {\n      \"idPessoa\": 4091,\n      \"tipo\": \"COMERCIAL\",\n      \"logradouro\": \"Rua Deputado Álvares Florence\",\n      \"numero\": 1302,\n      \"complemento\": \"ap 504\",\n      \"cep\": \"09890530\",\n      \"cidade\": \"teste\",\n      \"estado\": \"SP\",\n      \"pais\": \"Brasil\",\n      \"idEndereco\": 364\n    },\n    {\n      \"idPessoa\": 4091,\n      \"tipo\": \"COMERCIAL\",\n      \"logradouro\": \"Rua Deputado Álvares Florence\",\n      \"numero\": 1302,\n      \"complemento\": \"ap 504\",\n      \"cep\": \"09890530\",\n      \"cidade\": \"teste\",\n      \"estado\": \"SP\",\n      \"pais\": \"Brasil\",\n      \"idEndereco\": 432\n    },\n    {\n      \"idPessoa\": 4091,\n      \"tipo\": \"COMERCIAL\",\n      \"logradouro\": \"Rua Deputado Álvares Florence\",\n      \"numero\": 1302,\n      \"complemento\": \"ap 504\",\n      \"cep\": \"09890530\",\n      \"cidade\": \"teste\",\n      \"estado\": \"SP\",\n      \"pais\": \"Brasil\",\n      \"idEndereco\": 436\n    },\n    {\n      \"idPessoa\": 4091,\n      \"tipo\": \"COMERCIAL\",\n      \"logradouro\": \"Rua Deputado Álvares Florence\",\n      \"numero\": 1302,\n      \"complemento\": \"ap 504\",\n      \"cep\": \"09890530\",\n      \"cidade\": \"teste\",\n      \"estado\": \"SP\",\n      \"pais\": \"Brasil\",\n      \"idEndereco\": 440\n    },\n    {\n      \"idPessoa\": 4091,\n      \"tipo\": \"COMERCIAL\",\n      \"logradouro\": \"Rua Deputado Álvares Florence\",\n      \"numero\": 1302,\n      \"complemento\": \"ap 504\",\n      \"cep\": \"09890530\",\n      \"cidade\": \"teste\",\n      \"estado\": \"SP\",\n      \"pais\": \"Brasil\",\n      \"idEndereco\": 444\n    },\n    {\n      \"idPessoa\": 4091,\n      \"tipo\": \"COMERCIAL\",\n      \"logradouro\": \"Rua Deputado Álvares Florence\",\n      \"numero\": 1302,\n      \"complemento\": \"ap 504\",\n      \"cep\": \"09890530\",\n      \"cidade\": \"teste\",\n      \"estado\": \"SP\",\n      \"pais\": \"Brasil\",\n      \"idEndereco\": 448\n    },\n    {\n      \"idPessoa\": 4091,\n      \"tipo\": \"COMERCIAL\",\n      \"logradouro\": \"Rua Deputado Álvares Florence\",\n      \"numero\": 1302,\n      \"complemento\": \"ap 504\",\n      \"cep\": \"09890530\",\n      \"cidade\": \"teste\",\n      \"estado\": \"SP\",\n      \"pais\": \"Brasil\",\n      \"idEndereco\": 452\n    },\n    {\n      \"idPessoa\": 4091,\n      \"tipo\": \"COMERCIAL\",\n      \"logradouro\": \"Rua Deputado Álvares Florence\",\n      \"numero\": 1302,\n      \"complemento\": \"ap 504\",\n      \"cep\": \"09890530\",\n      \"cidade\": \"teste\",\n      \"estado\": \"SP\",\n      \"pais\": \"Brasil\",\n      \"idEndereco\": 456\n    },\n    {\n      \"idPessoa\": 4091,\n      \"tipo\": \"COMERCIAL\",\n      \"logradouro\": \"Rua Deputado Álvares Florence\",\n      \"numero\": 1302,\n      \"complemento\": \"ap 504\",\n      \"cep\": \"09890530\",\n      \"cidade\": \"teste\",\n      \"estado\": \"SP\",\n      \"pais\": \"Brasil\",\n      \"idEndereco\": 462\n    },\n    {\n      \"idPessoa\": 4091,\n      \"tipo\": \"COMERCIAL\",\n      \"logradouro\": \"Rua Deputado Álvares Florence\",\n      \"numero\": 1302,\n      \"complemento\": \"ap 504\",\n      \"cep\": \"09890530\",\n      \"cidade\": \"teste\",\n      \"estado\": \"SP\",\n      \"pais\": \"Brasil\",\n      \"idEndereco\": 466\n    },\n    {\n      \"idPessoa\": 4091,\n      \"tipo\": \"COMERCIAL\",\n      \"logradouro\": \"Rua Deputado Álvares Florence\",\n      \"numero\": 1302,\n      \"complemento\": \"ap 504\",\n      \"cep\": \"09890530\",\n      \"cidade\": \"teste\",\n      \"estado\": \"SP\",\n      \"pais\": \"Brasil\",\n      \"idEndereco\": 470\n    },\n    {\n      \"idPessoa\": 4091,\n      \"tipo\": \"COMERCIAL\",\n      \"logradouro\": \"Rua Deputado Álvares Florence\",\n      \"numero\": 1302,\n      \"complemento\": \"ap 504\",\n      \"cep\": \"09890530\",\n      \"cidade\": \"teste\",\n      \"estado\": \"SP\",\n      \"pais\": \"Brasil\",\n      \"idEndereco\": 474\n    },\n    {\n      \"idPessoa\": 4091,\n      \"tipo\": \"COMERCIAL\",\n      \"logradouro\": \"Rua Deputado Álvares Florence\",\n      \"numero\": 1302,\n      \"complemento\": \"ap 504\",\n      \"cep\": \"09890530\",\n      \"cidade\": \"teste\",\n      \"estado\": \"SP\",\n      \"pais\": \"Brasil\",\n      \"idEndereco\": 478\n    }\n  ]\n}"
      } ],
      "stepsCount" : 0,
      "hasContent" : true,
      "shouldDisplayMessage" : false,
      "attachmentsCount" : 0
    }, {
      "name" : "assert expected **200** to equal **200**",
      "time" : {
        "start" : 1668800676423,
        "stop" : 1668800676423,
        "duration" : 0
      },
      "status" : "passed",
      "steps" : [ ],
      "attachments" : [ ],
      "parameters" : [ {
        "name" : "actual",
        "value" : "200"
      }, {
        "name" : "expected",
        "value" : "200"
      } ],
      "stepsCount" : 0,
      "hasContent" : true,
      "shouldDisplayMessage" : false,
      "attachmentsCount" : 0
    } ],
    "attachments" : [ ],
    "parameters" : [ ],
    "stepsCount" : 5,
    "hasContent" : true,
    "shouldDisplayMessage" : false,
    "attachmentsCount" : 0
  },
  "afterStages" : [ ],
  "labels" : [ {
    "name" : "suite",
    "value" : "Endereco"
  }, {
    "name" : "resultFormat",
    "value" : "allure2"
  } ],
  "parameters" : [ ],
  "links" : [ ],
  "hidden" : true,
  "retry" : true,
  "extra" : {
    "categories" : [ ],
    "tags" : [ ]
  },
  "source" : "55271c1c6c21303.json",
  "parameterValues" : [ ]
}