{
  "uid" : "919b809b321ee318",
  "name" : "GET - Listar pessoas",
  "fullName" : "GET - Listar pessoas",
  "historyId" : "cb60bcad20876a0ed360d7888678fdcf",
  "time" : {
    "start" : 1668800823807,
    "stop" : 1668800823867,
    "duration" : 60
  },
  "status" : "passed",
  "flaky" : false,
  "newFailed" : false,
  "beforeStages" : [ {
    "time" : { },
    "status" : "passed",
    "steps" : [ {
      "name" : "login",
      "time" : {
        "start" : 1668800823475,
        "stop" : 1668800823640,
        "duration" : 165
      },
      "status" : "passed",
      "steps" : [ {
        "name" : "POST 200 http://vemser-dbc.dbccompany.com.br:39000/vemser/dbc-pessoa-api/auth",
        "time" : {
          "start" : 1668800823477,
          "stop" : 1668800823635,
          "duration" : 158
        },
        "status" : "passed",
        "steps" : [ ],
        "attachments" : [ ],
        "parameters" : [ ],
        "stepsCount" : 0,
        "hasContent" : false,
        "shouldDisplayMessage" : false,
        "attachmentsCount" : 0
      }, {
        "name" : "as (\"response\")",
        "time" : {
          "start" : 1668800823635,
          "stop" : 1668800823636,
          "duration" : 1
        },
        "status" : "passed",
        "steps" : [ ],
        "attachments" : [ ],
        "parameters" : [ ],
        "stepsCount" : 0,
        "hasContent" : false,
        "shouldDisplayMessage" : false,
        "attachmentsCount" : 0
      }, {
        "name" : "get @response",
        "time" : {
          "start" : 1668800823636,
          "stop" : 1668800823640,
          "duration" : 4
        },
        "status" : "passed",
        "steps" : [ ],
        "attachments" : [ ],
        "parameters" : [ ],
        "stepsCount" : 0,
        "hasContent" : false,
        "shouldDisplayMessage" : false,
        "attachmentsCount" : 0
      }, {
        "name" : "assert expected **200** to equal **200**",
        "time" : {
          "start" : 1668800823640,
          "stop" : 1668800823640,
          "duration" : 0
        },
        "status" : "passed",
        "steps" : [ ],
        "attachments" : [ ],
        "parameters" : [ {
          "name" : "actual",
          "value" : "200"
        }, {
          "name" : "expected",
          "value" : "200"
        } ],
        "stepsCount" : 0,
        "hasContent" : true,
        "shouldDisplayMessage" : false,
        "attachmentsCount" : 0
      } ],
      "attachments" : [ ],
      "parameters" : [ ],
      "stepsCount" : 4,
      "hasContent" : true,
      "shouldDisplayMessage" : false,
      "attachmentsCount" : 0
    } ],
    "attachments" : [ ],
    "parameters" : [ ],
    "stepsCount" : 5,
    "hasContent" : true,
    "shouldDisplayMessage" : false,
    "attachmentsCount" : 0
  }, {
    "time" : { },
    "status" : "passed",
    "steps" : [ {
      "name" : "login",
      "time" : {
        "start" : 1668800823642,
        "stop" : 1668800823804,
        "duration" : 162
      },
      "status" : "passed",
      "steps" : [ {
        "name" : "POST 200 http://vemser-dbc.dbccompany.com.br:39000/vemser/dbc-pessoa-api/auth",
        "time" : {
          "start" : 1668800823642,
          "stop" : 1668800823802,
          "duration" : 160
        },
        "status" : "passed",
        "steps" : [ ],
        "attachments" : [ ],
        "parameters" : [ ],
        "stepsCount" : 0,
        "hasContent" : false,
        "shouldDisplayMessage" : false,
        "attachmentsCount" : 0
      }, {
        "name" : "as (\"response\")",
        "time" : {
          "start" : 1668800823802,
          "stop" : 1668800823802,
          "duration" : 0
        },
        "status" : "passed",
        "steps" : [ ],
        "attachments" : [ ],
        "parameters" : [ ],
        "stepsCount" : 0,
        "hasContent" : false,
        "shouldDisplayMessage" : false,
        "attachmentsCount" : 0
      }, {
        "name" : "get @response",
        "time" : {
          "start" : 1668800823802,
          "stop" : 1668800823804,
          "duration" : 2
        },
        "status" : "passed",
        "steps" : [ ],
        "attachments" : [ ],
        "parameters" : [ ],
        "stepsCount" : 0,
        "hasContent" : false,
        "shouldDisplayMessage" : false,
        "attachmentsCount" : 0
      }, {
        "name" : "assert expected **200** to equal **200**",
        "time" : {
          "start" : 1668800823804,
          "stop" : 1668800823804,
          "duration" : 0
        },
        "status" : "passed",
        "steps" : [ ],
        "attachments" : [ ],
        "parameters" : [ {
          "name" : "actual",
          "value" : "200"
        }, {
          "name" : "expected",
          "value" : "200"
        } ],
        "stepsCount" : 0,
        "hasContent" : true,
        "shouldDisplayMessage" : false,
        "attachmentsCount" : 0
      } ],
      "attachments" : [ ],
      "parameters" : [ ],
      "stepsCount" : 4,
      "hasContent" : true,
      "shouldDisplayMessage" : false,
      "attachmentsCount" : 0
    } ],
    "attachments" : [ ],
    "parameters" : [ ],
    "stepsCount" : 5,
    "hasContent" : true,
    "shouldDisplayMessage" : false,
    "attachmentsCount" : 0
  } ],
  "testStage" : {
    "status" : "passed",
    "steps" : [ {
      "name" : "GET 200 http://vemser-dbc.dbccompany.com.br:39000/vemser/dbc-pessoa-api/pessoa",
      "time" : {
        "start" : 1668800823809,
        "stop" : 1668800823862,
        "duration" : 53
      },
      "status" : "passed",
      "steps" : [ ],
      "attachments" : [ ],
      "parameters" : [ ],
      "stepsCount" : 0,
      "hasContent" : false,
      "shouldDisplayMessage" : false,
      "attachmentsCount" : 0
    }, {
      "name" : "as (\"response\")",
      "time" : {
        "start" : 1668800823862,
        "stop" : 1668800823862,
        "duration" : 0
      },
      "status" : "passed",
      "steps" : [ ],
      "attachments" : [ ],
      "parameters" : [ ],
      "stepsCount" : 0,
      "hasContent" : false,
      "shouldDisplayMessage" : false,
      "attachmentsCount" : 0
    }, {
      "name" : "get @response",
      "time" : {
        "start" : 1668800823862,
        "stop" : 1668800823867,
        "duration" : 5
      },
      "status" : "passed",
      "steps" : [ ],
      "attachments" : [ ],
      "parameters" : [ ],
      "stepsCount" : 0,
      "hasContent" : false,
      "shouldDisplayMessage" : false,
      "attachmentsCount" : 0
    }, {
      "name" : "assert expected **200** to equal **200**",
      "time" : {
        "start" : 1668800823866,
        "stop" : 1668800823866,
        "duration" : 0
      },
      "status" : "passed",
      "steps" : [ ],
      "attachments" : [ ],
      "parameters" : [ {
        "name" : "actual",
        "value" : "200"
      }, {
        "name" : "expected",
        "value" : "200"
      } ],
      "stepsCount" : 0,
      "hasContent" : true,
      "shouldDisplayMessage" : false,
      "attachmentsCount" : 0
    }, {
      "name" : "assert expected **{ Object (totalElements, totalPages, ...) }** not to be empty",
      "time" : {
        "start" : 1668800823866,
        "stop" : 1668800823867,
        "duration" : 1
      },
      "status" : "passed",
      "steps" : [ ],
      "attachments" : [ ],
      "parameters" : [ {
        "name" : "actual",
        "value" : "{\n  \"totalElements\": 331,\n  \"totalPages\": 17,\n  \"page\": 0,\n  \"size\": 20,\n  \"content\": [\n    {\n      \"nome\": \"Igor Dinho\",\n      \"dataNascimento\": \"1985-07-08\",\n      \"cpf\": \"741258\",\n      \"email\": \"igor.dinho@dbccompany.com.br\",\n      \"idPessoa\": 6626\n    },\n    {\n      \"nome\": \"Nome Teste Cypress\",\n      \"dataNascimento\": \"2022-11-11\",\n      \"cpf\": \"03336669990\",\n      \"email\": \"nome.teste@dbccompany.com.br\",\n      \"idPessoa\": 5518\n    },\n    {\n      \"nome\": \"Alain\",\n      \"dataNascimento\": \"2003-12-08\",\n      \"cpf\": \"1233563152\",\n      \"email\": \"batman@gmail.com\",\n      \"idPessoa\": 5503\n    },\n    {\n      \"nome\": \"Alain123\",\n      \"dataNascimento\": \"2003-12-08\",\n      \"cpf\": \"1233563152\",\n      \"email\": \"batman@gmail.com\",\n      \"idPessoa\": 5510\n    },\n    {\n      \"nome\": \"Nome Teste Cypress\",\n      \"dataNascimento\": \"2022-11-11\",\n      \"cpf\": \"03336669990\",\n      \"email\": \"nome.teste@dbccompany.com.br\",\n      \"idPessoa\": 5667\n    },\n    {\n      \"nome\": \"Alain\",\n      \"dataNascimento\": \"2003-12-08\",\n      \"cpf\": \"1233563152\",\n      \"email\": \"batman@gmail.com\",\n      \"idPessoa\": 5516\n    },\n    {\n      \"nome\": \"Nome Teste Cypress\",\n      \"dataNascimento\": \"2022-11-11\",\n      \"cpf\": \"03336669990\",\n      \"email\": \"nome.teste@dbccompany.com.br\",\n      \"idPessoa\": 5517\n    },\n    {\n      \"nome\": \"Gabriel Luppi\",\n      \"dataNascimento\": \"2003-12-08\",\n      \"cpf\": \"56448825002\",\n      \"email\": \"gabriel.luppi@dbccompany.com.br\",\n      \"idPessoa\": 5519\n    },\n    {\n      \"nome\": \"Nome Teste Cypress\",\n      \"dataNascimento\": \"2022-11-11\",\n      \"cpf\": \"03336669990\",\n      \"email\": \"nome.teste@dbccompany.com.br\",\n      \"idPessoa\": 5520\n    },\n    {\n      \"nome\": \"User Tester QA\",\n      \"dataNascimento\": \"2001-01-01\",\n      \"cpf\": \"12345665421\",\n      \"email\": \"user.tester.qa@dbccompany.com.br\",\n      \"idPessoa\": 6027\n    },\n    {\n      \"nome\": \"Rawad\",\n      \"dataNascimento\": \"1991-10-19\",\n      \"cpf\": \"11111122111\",\n      \"email\": \"gabriel.luppi@dbccompany.com.br\",\n      \"idPessoa\": 5712\n    },\n    {\n      \"nome\": \"User Tester QA\",\n      \"dataNascimento\": \"2001-01-01\",\n      \"cpf\": \"12345665421\",\n      \"email\": \"user.tester.qa@dbccompany.com.br\",\n      \"idPessoa\": 5672\n    },\n    {\n      \"nome\": \"Igor Dinho\",\n      \"dataNascimento\": \"1985-07-08\",\n      \"cpf\": \"741258\",\n      \"email\": \"igor.dinho@dbccompany.com.br\",\n      \"idPessoa\": 5876\n    },\n    {\n      \"nome\": \"Nome Teste Cypress\",\n      \"dataNascimento\": \"2022-11-11\",\n      \"cpf\": \"03336669990\",\n      \"email\": \"nome.teste@dbccompany.com.br\",\n      \"idPessoa\": 5839\n    },\n    {\n      \"nome\": \"User Tester QA\",\n      \"dataNascimento\": \"2001-01-01\",\n      \"cpf\": \"12345665421\",\n      \"email\": \"user.tester.qa@dbccompany.com.br\",\n      \"idPessoa\": 5844\n    },\n    {\n      \"nome\": \"User Tester QA\",\n      \"dataNascimento\": \"2001-01-01\",\n      \"cpf\": \"12345665421\",\n      \"email\": \"user.tester.qa@dbccompany.com.br\",\n      \"idPessoa\": 5882\n    },\n    {\n      \"nome\": \"Nome Teste Cypress\",\n      \"dataNascimento\": \"2022-11-11\",\n      \"cpf\": \"03336669990\",\n      \"email\": \"nome.teste@dbccompany.com.br\",\n      \"idPessoa\": 5763\n    },\n    {\n      \"nome\": \"User Tester QA\",\n      \"dataNascimento\": \"2001-01-01\",\n      \"cpf\": \"12345665421\",\n      \"email\": \"user.tester.qa@dbccompany.com.br\",\n      \"idPessoa\": 5768\n    },\n    {\n      \"nome\": \"Rawad\",\n      \"dataNascimento\": \"1991-10-19\",\n      \"cpf\": \"11111122111\",\n      \"email\": \"gabriel.luppi@dbccompany.com.br\",\n      \"idPessoa\": 5787\n    },\n    {\n      \"nome\": \"Rawad\",\n      \"dataNascimento\": \"1991-10-19\",\n      \"cpf\": \"11111122111\",\n      \"email\": \"gabriel.luppi@dbccompany.com.br\",\n      \"idPessoa\": 6003\n    }\n  ]\n}"
      } ],
      "stepsCount" : 0,
      "hasContent" : true,
      "shouldDisplayMessage" : false,
      "attachmentsCount" : 0
    } ],
    "attachments" : [ ],
    "parameters" : [ ],
    "stepsCount" : 5,
    "hasContent" : true,
    "shouldDisplayMessage" : false,
    "attachmentsCount" : 0
  },
  "afterStages" : [ ],
  "labels" : [ {
    "name" : "suite",
    "value" : "Pessoa"
  }, {
    "name" : "resultFormat",
    "value" : "allure2"
  } ],
  "parameters" : [ ],
  "links" : [ ],
  "hidden" : false,
  "retry" : false,
  "extra" : {
    "severity" : "normal",
    "retries" : [ {
      "uid" : "5efb1881f942bb6c",
      "status" : "passed",
      "time" : {
        "start" : 1668800672755,
        "stop" : 1668800672817,
        "duration" : 62
      }
    }, {
      "uid" : "70905c6824f74a76",
      "status" : "passed",
      "time" : {
        "start" : 1668799945876,
        "stop" : 1668799945942,
        "duration" : 66
      }
    }, {
      "uid" : "93e6efae2808228e",
      "status" : "passed",
      "time" : {
        "start" : 1668799733187,
        "stop" : 1668799733263,
        "duration" : 76
      }
    }, {
      "uid" : "8d049f13a47b2adc",
      "status" : "passed",
      "time" : {
        "start" : 1668799657098,
        "stop" : 1668799657160,
        "duration" : 62
      }
    } ],
    "categories" : [ ],
    "history" : {
      "statistic" : {
        "failed" : 0,
        "broken" : 0,
        "skipped" : 0,
        "passed" : 2,
        "unknown" : 0,
        "total" : 2
      },
      "items" : [ {
        "uid" : "20a7fb386edc6ae9",
        "status" : "passed",
        "time" : {
          "start" : 1668799657098,
          "stop" : 1668799657160,
          "duration" : 62
        }
      } ]
    },
    "tags" : [ ]
  },
  "source" : "919b809b321ee318.json",
  "parameterValues" : [ ]
}