{
  "uid" : "da2379a100440b9b",
  "name" : "GET - Listar enderecos",
  "fullName" : "GET - Listar enderecos",
  "historyId" : "36bcd067cede5e6f22a4911800040888",
  "time" : {
    "start" : 1668969590036,
    "stop" : 1668969590142,
    "duration" : 106
  },
  "status" : "passed",
  "flaky" : false,
  "newFailed" : false,
  "beforeStages" : [ ],
  "testStage" : {
    "status" : "passed",
    "steps" : [ {
      "name" : "GET 200 http://vemser-dbc.dbccompany.com.br:39000/vemser/dbc-pessoa-api/endereco",
      "time" : {
        "start" : 1668969590050,
        "stop" : 1668969590140,
        "duration" : 90
      },
      "status" : "passed",
      "steps" : [ ],
      "attachments" : [ ],
      "parameters" : [ ],
      "attachmentsCount" : 0,
      "shouldDisplayMessage" : false,
      "stepsCount" : 0,
      "hasContent" : false
    }, {
      "name" : "as (\"response\")",
      "time" : {
        "start" : 1668969590140,
        "stop" : 1668969590140,
        "duration" : 0
      },
      "status" : "passed",
      "steps" : [ ],
      "attachments" : [ ],
      "parameters" : [ ],
      "attachmentsCount" : 0,
      "shouldDisplayMessage" : false,
      "stepsCount" : 0,
      "hasContent" : false
    }, {
      "name" : "get @response",
      "time" : {
        "start" : 1668969590140,
        "stop" : 1668969590141,
        "duration" : 1
      },
      "status" : "passed",
      "steps" : [ ],
      "attachments" : [ ],
      "parameters" : [ ],
      "attachmentsCount" : 0,
      "shouldDisplayMessage" : false,
      "stepsCount" : 0,
      "hasContent" : false
    }, {
      "name" : "assert expected **{ Object (totalElements, totalPages, ...) }** not to be empty",
      "time" : {
        "start" : 1668969590142,
        "stop" : 1668969590142,
        "duration" : 0
      },
      "status" : "passed",
      "steps" : [ ],
      "attachments" : [ ],
      "parameters" : [ {
        "name" : "actual",
        "value" : "{\n  \"totalElements\": 85,\n  \"totalPages\": 5,\n  \"page\": 0,\n  \"size\": 20,\n  \"content\": [\n    {\n      \"idPessoa\": 9332,\n      \"tipo\": \"COMERCIAL\",\n      \"logradouro\": \"Rua José F. de Albuquerque\",\n      \"numero\": 123,\n      \"complemento\": \"Daniel Jacon\",\n      \"cep\": \"13630300\",\n      \"cidade\": \"Pirassununga\",\n      \"estado\": \"SP\",\n      \"pais\": \"Brasil\",\n      \"idEndereco\": 1916\n    },\n    {\n      \"idPessoa\": 4091,\n      \"tipo\": \"COMERCIAL\",\n      \"logradouro\": \"Rua Deputado Álvares Florence\",\n      \"numero\": 1235,\n      \"complemento\": \"ap 504\",\n      \"cep\": \"09890530\",\n      \"cidade\": \"teste\",\n      \"estado\": \"SP\",\n      \"pais\": \"Brasil\",\n      \"idEndereco\": 634\n    },\n    {\n      \"idPessoa\": 4091,\n      \"tipo\": \"COMERCIAL\",\n      \"logradouro\": \"Rua Deputado Álvares Florence\",\n      \"numero\": 1302,\n      \"complemento\": \"ap 504\",\n      \"cep\": \"09890530\",\n      \"cidade\": \"São Bernardo do Campo\",\n      \"estado\": \"SP\",\n      \"pais\": \"Brasil\",\n      \"idEndereco\": 637\n    },\n    {\n      \"idPessoa\": 4091,\n      \"tipo\": \"COMERCIAL\",\n      \"logradouro\": \"Rua Deputado Álvares Florence\",\n      \"numero\": 1302,\n      \"complemento\": \"ap 504\",\n      \"cep\": \"09890530\",\n      \"cidade\": \"São Bernardo do Campo\",\n      \"estado\": \"SP\",\n      \"pais\": \"Brasil\",\n      \"idEndereco\": 641\n    },\n    {\n      \"idPessoa\": 4091,\n      \"tipo\": \"COMERCIAL\",\n      \"logradouro\": \"Rua Deputado Álvares Florence\",\n      \"numero\": 1302,\n      \"complemento\": \"ap 504\",\n      \"cep\": \"09890530\",\n      \"cidade\": \"São Bernardo do Campo\",\n      \"estado\": \"SP\",\n      \"pais\": \"Brasil\",\n      \"idEndereco\": 639\n    },\n    {\n      \"idPessoa\": 4091,\n      \"tipo\": \"COMERCIAL\",\n      \"logradouro\": \"Rua Deputado Álvares Florence\",\n      \"numero\": 1302,\n      \"complemento\": \"ap 504\",\n      \"cep\": \"09890530\",\n      \"cidade\": \"São Bernardo do Campo\",\n      \"estado\": \"SP\",\n      \"pais\": \"Brasil\",\n      \"idEndereco\": 649\n    },\n    {\n      \"idPessoa\": 4091,\n      \"tipo\": \"COMERCIAL\",\n      \"logradouro\": \"Rua Deputado Álvares Florence\",\n      \"numero\": 1302,\n      \"complemento\": \"ap 504\",\n      \"cep\": \"09890530\",\n      \"cidade\": \"São Bernardo do Campo\",\n      \"estado\": \"SP\",\n      \"pais\": \"Brasil\",\n      \"idEndereco\": 651\n    },\n    {\n      \"idPessoa\": 4091,\n      \"tipo\": \"COMERCIAL\",\n      \"logradouro\": \"Rua Deputado Álvares Florence\",\n      \"numero\": 1302,\n      \"complemento\": \"ap 504\",\n      \"cep\": \"09890530\",\n      \"cidade\": \"São Bernardo do Campo\",\n      \"estado\": \"SP\",\n      \"pais\": \"Brasil\",\n      \"idEndereco\": 653\n    },\n    {\n      \"idPessoa\": 4091,\n      \"tipo\": \"COMERCIAL\",\n      \"logradouro\": \"Rua Deputado Álvares Florence\",\n      \"numero\": 1302,\n      \"complemento\": \"ap 504\",\n      \"cep\": \"09890530\",\n      \"cidade\": \"São Bernardo do Campo\",\n      \"estado\": \"SP\",\n      \"pais\": \"Brasil\",\n      \"idEndereco\": 655\n    },\n    {\n      \"idPessoa\": 4091,\n      \"tipo\": \"COMERCIAL\",\n      \"logradouro\": \"Rua Deputado Álvares Florence\",\n      \"numero\": 1302,\n      \"complemento\": \"ap 504\",\n      \"cep\": \"09890530\",\n      \"cidade\": \"São Bernardo do Campo\",\n      \"estado\": \"SP\",\n      \"pais\": \"Brasil\",\n      \"idEndereco\": 657\n    },\n    {\n      \"idPessoa\": 4091,\n      \"tipo\": \"COMERCIAL\",\n      \"logradouro\": \"Rua Deputado Álvares Florence\",\n      \"numero\": 1302,\n      \"complemento\": \"ap 504\",\n      \"cep\": \"09890530\",\n      \"cidade\": \"São Bernardo do Campo\",\n      \"estado\": \"SP\",\n      \"pais\": \"Brasil\",\n      \"idEndereco\": 659\n    },\n    {\n      \"idPessoa\": 4091,\n      \"tipo\": \"COMERCIAL\",\n      \"logradouro\": \"Rua Deputado Álvares Florence\",\n      \"numero\": 1302,\n      \"complemento\": \"ap 504\",\n      \"cep\": \"09890530\",\n      \"cidade\": \"São Bernardo do Campo\",\n      \"estado\": \"SP\",\n      \"pais\": \"Brasil\",\n      \"idEndereco\": 665\n    },\n    {\n      \"idPessoa\": 4091,\n      \"tipo\": \"COMERCIAL\",\n      \"logradouro\": \"Rua Deputado Álvares Florence\",\n      \"numero\": 1302,\n      \"complemento\": \"ap 504\",\n      \"cep\": \"09890530\",\n      \"cidade\": \"São Bernardo do Campo\",\n      \"estado\": \"SP\",\n      \"pais\": \"Brasil\",\n      \"idEndereco\": 667\n    },\n    {\n      \"idPessoa\": 4091,\n      \"tipo\": \"COMERCIAL\",\n      \"logradouro\": \"Rua Deputado Álvares Florence\",\n      \"numero\": 1302,\n      \"complemento\": \"ap 504\",\n      \"cep\": \"09890530\",\n      \"cidade\": \"São Bernardo do Campo\",\n      \"estado\": \"SP\",\n      \"pais\": \"Brasil\",\n      \"idEndereco\": 669\n    },\n    {\n      \"idPessoa\": 4091,\n      \"tipo\": \"COMERCIAL\",\n      \"logradouro\": \"Rua Deputado Álvares Florence\",\n      \"numero\": 1302,\n      \"complemento\": \"ap 504\",\n      \"cep\": \"09890530\",\n      \"cidade\": \"São Bernardo do Campo\",\n      \"estado\": \"SP\",\n      \"pais\": \"Brasil\",\n      \"idEndereco\": 677\n    },\n    {\n      \"idPessoa\": 4091,\n      \"tipo\": \"COMERCIAL\",\n      \"logradouro\": \"Rua Deputado Álvares Florence\",\n      \"numero\": 1302,\n      \"complemento\": \"ap 504\",\n      \"cep\": \"09890530\",\n      \"cidade\": \"São Bernardo do Campo\",\n      \"estado\": \"SP\",\n      \"pais\": \"Brasil\",\n      \"idEndereco\": 679\n    },\n    {\n      \"idPessoa\": 4091,\n      \"tipo\": \"COMERCIAL\",\n      \"logradouro\": \"Rua Deputado Álvares Florence\",\n      \"numero\": 1302,\n      \"complemento\": \"ap 504\",\n      \"cep\": \"09890530\",\n      \"cidade\": \"São Bernardo do Campo\",\n      \"estado\": \"SP\",\n      \"pais\": \"Brasil\",\n      \"idEndereco\": 681\n    },\n    {\n      \"idPessoa\": 4091,\n      \"tipo\": \"COMERCIAL\",\n      \"logradouro\": \"Rua Deputado Álvares Florence\",\n      \"numero\": 1302,\n      \"complemento\": \"ap 504\",\n      \"cep\": \"09890530\",\n      \"cidade\": \"São Bernardo do Campo\",\n      \"estado\": \"SP\",\n      \"pais\": \"Brasil\",\n      \"idEndereco\": 689\n    },\n    {\n      \"idPessoa\": 4091,\n      \"tipo\": \"COMERCIAL\",\n      \"logradouro\": \"Rua Deputado Álvares Florence\",\n      \"numero\": 1302,\n      \"complemento\": \"ap 504\",\n      \"cep\": \"09890530\",\n      \"cidade\": \"São Bernardo do Campo\",\n      \"estado\": \"SP\",\n      \"pais\": \"Brasil\",\n      \"idEndereco\": 691\n    },\n    {\n      \"idPessoa\": 4091,\n      \"tipo\": \"COMERCIAL\",\n      \"logradouro\": \"Rua Deputado Álvares Florence\",\n      \"numero\": 1302,\n      \"complemento\": \"ap 504\",\n      \"cep\": \"09890530\",\n      \"cidade\": \"São Bernardo do Campo\",\n      \"estado\": \"SP\",\n      \"pais\": \"Brasil\",\n      \"idEndereco\": 699\n    }\n  ]\n}"
      } ],
      "attachmentsCount" : 0,
      "shouldDisplayMessage" : false,
      "stepsCount" : 0,
      "hasContent" : true
    }, {
      "name" : "assert expected **200** to equal **200**",
      "time" : {
        "start" : 1668969590142,
        "stop" : 1668969590142,
        "duration" : 0
      },
      "status" : "passed",
      "steps" : [ ],
      "attachments" : [ ],
      "parameters" : [ {
        "name" : "actual",
        "value" : "200"
      }, {
        "name" : "expected",
        "value" : "200"
      } ],
      "attachmentsCount" : 0,
      "shouldDisplayMessage" : false,
      "stepsCount" : 0,
      "hasContent" : true
    } ],
    "attachments" : [ ],
    "parameters" : [ ],
    "attachmentsCount" : 0,
    "shouldDisplayMessage" : false,
    "stepsCount" : 5,
    "hasContent" : true
  },
  "afterStages" : [ ],
  "labels" : [ {
    "name" : "suite",
    "value" : "Endereco"
  }, {
    "name" : "epic",
    "value" : "EndPoint Endereco"
  }, {
    "name" : "feature",
    "value" : "GET Endereco"
  }, {
    "name" : "resultFormat",
    "value" : "allure2"
  } ],
  "parameters" : [ ],
  "links" : [ ],
  "hidden" : true,
  "retry" : true,
  "extra" : {
    "categories" : [ ],
    "tags" : [ ]
  },
  "source" : "da2379a100440b9b.json",
  "parameterValues" : [ ]
}