{"uuid":"2620adac-a985-483f-8b8f-c59af67bd9bc","historyId":"36bcd067cede5e6f22a4911800040888","status":"passed","statusDetails":{},"stage":"finished","steps":[{"status":"passed","statusDetails":{},"stage":"finished","steps":[],"attachments":[],"parameters":[],"start":1668969648526,"name":"GET 200 http://vemser-dbc.dbccompany.com.br:39000/vemser/dbc-pessoa-api/endereco","stop":1668969648610},{"status":"passed","statusDetails":{},"stage":"finished","steps":[],"attachments":[],"parameters":[],"start":1668969648610,"name":"as (\"response\")","stop":1668969648610},{"status":"passed","statusDetails":{},"stage":"finished","steps":[],"attachments":[],"parameters":[],"start":1668969648610,"name":"get @response","stop":1668969648611},{"status":"passed","statusDetails":{},"stage":"finished","steps":[],"attachments":[],"parameters":[{"name":"actual","value":"{\n  \"totalElements\": 85,\n  \"totalPages\": 5,\n  \"page\": 0,\n  \"size\": 20,\n  \"content\": [\n    {\n      \"idPessoa\": 9332,\n      \"tipo\": \"COMERCIAL\",\n      \"logradouro\": \"Rua José F. de Albuquerque\",\n      \"numero\": 123,\n      \"complemento\": \"Daniel Jacon\",\n      \"cep\": \"13630300\",\n      \"cidade\": \"Pirassununga\",\n      \"estado\": \"SP\",\n      \"pais\": \"Brasil\",\n      \"idEndereco\": 1916\n    },\n    {\n      \"idPessoa\": 4091,\n      \"tipo\": \"COMERCIAL\",\n      \"logradouro\": \"Rua Deputado Álvares Florence\",\n      \"numero\": 1235,\n      \"complemento\": \"ap 504\",\n      \"cep\": \"09890530\",\n      \"cidade\": \"teste\",\n      \"estado\": \"SP\",\n      \"pais\": \"Brasil\",\n      \"idEndereco\": 634\n    },\n    {\n      \"idPessoa\": 4091,\n      \"tipo\": \"COMERCIAL\",\n      \"logradouro\": \"Rua Deputado Álvares Florence\",\n      \"numero\": 1302,\n      \"complemento\": \"ap 504\",\n      \"cep\": \"09890530\",\n      \"cidade\": \"São Bernardo do Campo\",\n      \"estado\": \"SP\",\n      \"pais\": \"Brasil\",\n      \"idEndereco\": 637\n    },\n    {\n      \"idPessoa\": 4091,\n      \"tipo\": \"COMERCIAL\",\n      \"logradouro\": \"Rua Deputado Álvares Florence\",\n      \"numero\": 1302,\n      \"complemento\": \"ap 504\",\n      \"cep\": \"09890530\",\n      \"cidade\": \"São Bernardo do Campo\",\n      \"estado\": \"SP\",\n      \"pais\": \"Brasil\",\n      \"idEndereco\": 641\n    },\n    {\n      \"idPessoa\": 4091,\n      \"tipo\": \"COMERCIAL\",\n      \"logradouro\": \"Rua Deputado Álvares Florence\",\n      \"numero\": 1302,\n      \"complemento\": \"ap 504\",\n      \"cep\": \"09890530\",\n      \"cidade\": \"São Bernardo do Campo\",\n      \"estado\": \"SP\",\n      \"pais\": \"Brasil\",\n      \"idEndereco\": 639\n    },\n    {\n      \"idPessoa\": 4091,\n      \"tipo\": \"COMERCIAL\",\n      \"logradouro\": \"Rua Deputado Álvares Florence\",\n      \"numero\": 1302,\n      \"complemento\": \"ap 504\",\n      \"cep\": \"09890530\",\n      \"cidade\": \"São Bernardo do Campo\",\n      \"estado\": \"SP\",\n      \"pais\": \"Brasil\",\n      \"idEndereco\": 649\n    },\n    {\n      \"idPessoa\": 4091,\n      \"tipo\": \"COMERCIAL\",\n      \"logradouro\": \"Rua Deputado Álvares Florence\",\n      \"numero\": 1302,\n      \"complemento\": \"ap 504\",\n      \"cep\": \"09890530\",\n      \"cidade\": \"São Bernardo do Campo\",\n      \"estado\": \"SP\",\n      \"pais\": \"Brasil\",\n      \"idEndereco\": 651\n    },\n    {\n      \"idPessoa\": 4091,\n      \"tipo\": \"COMERCIAL\",\n      \"logradouro\": \"Rua Deputado Álvares Florence\",\n      \"numero\": 1302,\n      \"complemento\": \"ap 504\",\n      \"cep\": \"09890530\",\n      \"cidade\": \"São Bernardo do Campo\",\n      \"estado\": \"SP\",\n      \"pais\": \"Brasil\",\n      \"idEndereco\": 653\n    },\n    {\n      \"idPessoa\": 4091,\n      \"tipo\": \"COMERCIAL\",\n      \"logradouro\": \"Rua Deputado Álvares Florence\",\n      \"numero\": 1302,\n      \"complemento\": \"ap 504\",\n      \"cep\": \"09890530\",\n      \"cidade\": \"São Bernardo do Campo\",\n      \"estado\": \"SP\",\n      \"pais\": \"Brasil\",\n      \"idEndereco\": 655\n    },\n    {\n      \"idPessoa\": 4091,\n      \"tipo\": \"COMERCIAL\",\n      \"logradouro\": \"Rua Deputado Álvares Florence\",\n      \"numero\": 1302,\n      \"complemento\": \"ap 504\",\n      \"cep\": \"09890530\",\n      \"cidade\": \"São Bernardo do Campo\",\n      \"estado\": \"SP\",\n      \"pais\": \"Brasil\",\n      \"idEndereco\": 657\n    },\n    {\n      \"idPessoa\": 4091,\n      \"tipo\": \"COMERCIAL\",\n      \"logradouro\": \"Rua Deputado Álvares Florence\",\n      \"numero\": 1302,\n      \"complemento\": \"ap 504\",\n      \"cep\": \"09890530\",\n      \"cidade\": \"São Bernardo do Campo\",\n      \"estado\": \"SP\",\n      \"pais\": \"Brasil\",\n      \"idEndereco\": 659\n    },\n    {\n      \"idPessoa\": 4091,\n      \"tipo\": \"COMERCIAL\",\n      \"logradouro\": \"Rua Deputado Álvares Florence\",\n      \"numero\": 1302,\n      \"complemento\": \"ap 504\",\n      \"cep\": \"09890530\",\n      \"cidade\": \"São Bernardo do Campo\",\n      \"estado\": \"SP\",\n      \"pais\": \"Brasil\",\n      \"idEndereco\": 665\n    },\n    {\n      \"idPessoa\": 4091,\n      \"tipo\": \"COMERCIAL\",\n      \"logradouro\": \"Rua Deputado Álvares Florence\",\n      \"numero\": 1302,\n      \"complemento\": \"ap 504\",\n      \"cep\": \"09890530\",\n      \"cidade\": \"São Bernardo do Campo\",\n      \"estado\": \"SP\",\n      \"pais\": \"Brasil\",\n      \"idEndereco\": 667\n    },\n    {\n      \"idPessoa\": 4091,\n      \"tipo\": \"COMERCIAL\",\n      \"logradouro\": \"Rua Deputado Álvares Florence\",\n      \"numero\": 1302,\n      \"complemento\": \"ap 504\",\n      \"cep\": \"09890530\",\n      \"cidade\": \"São Bernardo do Campo\",\n      \"estado\": \"SP\",\n      \"pais\": \"Brasil\",\n      \"idEndereco\": 669\n    },\n    {\n      \"idPessoa\": 4091,\n      \"tipo\": \"COMERCIAL\",\n      \"logradouro\": \"Rua Deputado Álvares Florence\",\n      \"numero\": 1302,\n      \"complemento\": \"ap 504\",\n      \"cep\": \"09890530\",\n      \"cidade\": \"São Bernardo do Campo\",\n      \"estado\": \"SP\",\n      \"pais\": \"Brasil\",\n      \"idEndereco\": 677\n    },\n    {\n      \"idPessoa\": 4091,\n      \"tipo\": \"COMERCIAL\",\n      \"logradouro\": \"Rua Deputado Álvares Florence\",\n      \"numero\": 1302,\n      \"complemento\": \"ap 504\",\n      \"cep\": \"09890530\",\n      \"cidade\": \"São Bernardo do Campo\",\n      \"estado\": \"SP\",\n      \"pais\": \"Brasil\",\n      \"idEndereco\": 679\n    },\n    {\n      \"idPessoa\": 4091,\n      \"tipo\": \"COMERCIAL\",\n      \"logradouro\": \"Rua Deputado Álvares Florence\",\n      \"numero\": 1302,\n      \"complemento\": \"ap 504\",\n      \"cep\": \"09890530\",\n      \"cidade\": \"São Bernardo do Campo\",\n      \"estado\": \"SP\",\n      \"pais\": \"Brasil\",\n      \"idEndereco\": 681\n    },\n    {\n      \"idPessoa\": 4091,\n      \"tipo\": \"COMERCIAL\",\n      \"logradouro\": \"Rua Deputado Álvares Florence\",\n      \"numero\": 1302,\n      \"complemento\": \"ap 504\",\n      \"cep\": \"09890530\",\n      \"cidade\": \"São Bernardo do Campo\",\n      \"estado\": \"SP\",\n      \"pais\": \"Brasil\",\n      \"idEndereco\": 689\n    },\n    {\n      \"idPessoa\": 4091,\n      \"tipo\": \"COMERCIAL\",\n      \"logradouro\": \"Rua Deputado Álvares Florence\",\n      \"numero\": 1302,\n      \"complemento\": \"ap 504\",\n      \"cep\": \"09890530\",\n      \"cidade\": \"São Bernardo do Campo\",\n      \"estado\": \"SP\",\n      \"pais\": \"Brasil\",\n      \"idEndereco\": 691\n    },\n    {\n      \"idPessoa\": 4091,\n      \"tipo\": \"COMERCIAL\",\n      \"logradouro\": \"Rua Deputado Álvares Florence\",\n      \"numero\": 1302,\n      \"complemento\": \"ap 504\",\n      \"cep\": \"09890530\",\n      \"cidade\": \"São Bernardo do Campo\",\n      \"estado\": \"SP\",\n      \"pais\": \"Brasil\",\n      \"idEndereco\": 699\n    }\n  ]\n}"}],"start":1668969648613,"name":"assert expected **{ Object (totalElements, totalPages, ...) }** not to be empty","stop":1668969648613},{"status":"passed","statusDetails":{},"stage":"finished","steps":[],"attachments":[],"parameters":[{"name":"actual","value":200},{"name":"expected","value":200}],"start":1668969648613,"name":"assert expected **200** to equal **200**","stop":1668969648613}],"attachments":[],"parameters":[],"labels":[{"name":"suite","value":"Endereco"},{"name":"epic","value":"EndPoint Endereco"},{"name":"feature","value":"GET Endereco"}],"links":[],"start":1668969648520,"name":"GET - Listar enderecos","fullName":"GET - Listar enderecos","stop":1668969648613}