{"uuid":"70a545e8-905e-4f77-8c7b-5d84908c57a7","historyId":"cb60bcad20876a0ed360d7888678fdcf","status":"passed","statusDetails":{},"stage":"finished","steps":[{"status":"passed","statusDetails":{},"stage":"finished","steps":[],"attachments":[],"parameters":[],"start":1668969585735,"name":"GET 200 http://vemser-dbc.dbccompany.com.br:39000/vemser/dbc-pessoa-api/pessoa","stop":1668969585839},{"status":"passed","statusDetails":{},"stage":"finished","steps":[],"attachments":[],"parameters":[],"start":1668969585839,"name":"as (\"response\")","stop":1668969585839},{"status":"passed","statusDetails":{},"stage":"finished","steps":[],"attachments":[],"parameters":[],"start":1668969585839,"name":"get @response","stop":1668969585844},{"status":"passed","statusDetails":{},"stage":"finished","steps":[],"attachments":[],"parameters":[{"name":"actual","value":200},{"name":"expected","value":200}],"start":1668969585844,"name":"assert expected **200** to equal **200**","stop":1668969585844},{"status":"passed","statusDetails":{},"stage":"finished","steps":[],"attachments":[],"parameters":[{"name":"actual","value":"{\n  \"totalElements\": 406,\n  \"totalPages\": 21,\n  \"page\": 0,\n  \"size\": 20,\n  \"content\": [\n    {\n      \"nome\": \"Blanca Marks2222233\",\n      \"dataNascimento\": \"2022-11-11\",\n      \"cpf\": \"34500513698\",\n      \"email\": \"Jocelyn81@gmail.com\",\n      \"idPessoa\": 9329\n    },\n    {\n      \"nome\": \"Brent Hessel\",\n      \"dataNascimento\": \"2022-11-11\",\n      \"cpf\": \"12725000980\",\n      \"email\": \"Jerrod_Vandervort26@gmail.com\",\n      \"idPessoa\": 8990\n    },\n    {\n      \"nome\": \"Mr. Oliver Greenfelder\",\n      \"dataNascimento\": \"2022-11-11\",\n      \"cpf\": \"05710417360\",\n      \"email\": \"Brenna27@yahoo.com\",\n      \"idPessoa\": 9071\n    },\n    {\n      \"nome\": \"Laurie Brakus\",\n      \"dataNascimento\": \"2022-11-11\",\n      \"cpf\": \"56531613734\",\n      \"email\": \"Delpha33@gmail.com\",\n      \"idPessoa\": 9135\n    },\n    {\n      \"nome\": \"Darlene Wunsch\",\n      \"dataNascimento\": \"2022-11-11\",\n      \"cpf\": \"31663776032\",\n      \"email\": \"Max_Stehr35@yahoo.com\",\n      \"idPessoa\": 9199\n    },\n    {\n      \"nome\": \"Teresa Champlin\",\n      \"dataNascimento\": \"2022-11-11\",\n      \"cpf\": \"80952493438\",\n      \"email\": \"Alene.Strosin@yahoo.com\",\n      \"idPessoa\": 9263\n    },\n    {\n      \"nome\": \"Holly Gerhold\",\n      \"dataNascimento\": \"2022-11-11\",\n      \"cpf\": \"97305303941\",\n      \"email\": \"Vanessa.Klocko@hotmail.com\",\n      \"idPessoa\": 8703\n    },\n    {\n      \"nome\": \"Adrian Donnelly\",\n      \"dataNascimento\": \"2022-11-11\",\n      \"cpf\": \"72617031411\",\n      \"email\": \"Name.Roob47@gmail.com\",\n      \"idPessoa\": 8705\n    },\n    {\n      \"nome\": \"Lori Hammes\",\n      \"dataNascimento\": \"2022-11-11\",\n      \"cpf\": \"21194004407\",\n      \"email\": \"Hunter22@gmail.com\",\n      \"idPessoa\": 8706\n    },\n    {\n      \"nome\": \"Edith Labadie\",\n      \"dataNascimento\": \"2022-11-11\",\n      \"cpf\": \"65765546994\",\n      \"email\": \"Yasmine_Flatley@hotmail.com\",\n      \"idPessoa\": 8707\n    },\n    {\n      \"nome\": \"Ollie Torphy\",\n      \"dataNascimento\": \"2022-11-11\",\n      \"cpf\": \"81240439652\",\n      \"email\": \"Keeley.Auer51@hotmail.com\",\n      \"idPessoa\": 8708\n    },\n    {\n      \"nome\": \"dasdsdsddsdsd\",\n      \"dataNascimento\": \"2022-10-31\",\n      \"cpf\": \"51561564545\",\n      \"email\": \"dsadxcnxjc@hotmail.com\",\n      \"idPessoa\": 8709\n    },\n    {\n      \"nome\": \"Ms. Tammy Hand\",\n      \"dataNascimento\": \"2022-11-11\",\n      \"cpf\": \"85449310650\",\n      \"email\": \"Keyon52@hotmail.com\",\n      \"idPessoa\": 8710\n    },\n    {\n      \"nome\": \"Ms. Martin Streich DDS\",\n      \"dataNascimento\": \"2022-11-11\",\n      \"cpf\": \"65227474729\",\n      \"email\": \"Annamae32@yahoo.com\",\n      \"idPessoa\": 8727\n    },\n    {\n      \"nome\": \"Julius Torp II\",\n      \"dataNascimento\": \"2022-11-11\",\n      \"cpf\": \"71275220223\",\n      \"email\": \"Vincenzo47@yahoo.com\",\n      \"idPessoa\": 8920\n    },\n    {\n      \"nome\": \"Mr. Kathy Fadel\",\n      \"dataNascimento\": \"2022-11-11\",\n      \"cpf\": \"64824088852\",\n      \"email\": \"Rodolfo.Thompson@yahoo.com\",\n      \"idPessoa\": 9327\n    },\n    {\n      \"nome\": \"User Tester QA\",\n      \"dataNascimento\": \"2001-01-01\",\n      \"cpf\": \"12345665421\",\n      \"email\": \"user.tester.qa@dbccompany.com.br\",\n      \"idPessoa\": 8931\n    },\n    {\n      \"nome\": \"Douglas Stehr Sr.\",\n      \"dataNascimento\": \"2022-11-11\",\n      \"cpf\": \"12381703586\",\n      \"email\": \"Tristin14@gmail.com\",\n      \"idPessoa\": 9328\n    },\n    {\n      \"nome\": \"Dewey Gutmann\",\n      \"dataNascimento\": \"2022-11-11\",\n      \"cpf\": \"32836733730\",\n      \"email\": \"Elias_White61@hotmail.com\",\n      \"idPessoa\": 9330\n    },\n    {\n      \"nome\": \"Dr. Fred Kozey\",\n      \"dataNascimento\": \"2022-11-11\",\n      \"cpf\": \"93183651440\",\n      \"email\": \"Nelle27@gmail.com\",\n      \"idPessoa\": 9331\n    }\n  ]\n}"}],"start":1668969585844,"name":"assert expected **{ Object (totalElements, totalPages, ...) }** not to be empty","stop":1668969585844}],"attachments":[],"parameters":[],"labels":[{"name":"suite","value":"Pessoa"},{"name":"epic","value":"EndPoint Pessoa"},{"name":"feature","value":"GET Pessoa"}],"links":[],"start":1668969585731,"name":"GET - Listar pessoas","fullName":"GET - Listar pessoas","stop":1668969585845}