{"uuid":"d7b4c87a-5119-434c-b866-598e5786f2d1","historyId":"cb60bcad20876a0ed360d7888678fdcf","status":"passed","statusDetails":{},"stage":"finished","steps":[{"status":"passed","statusDetails":{},"stage":"finished","steps":[],"attachments":[],"parameters":[],"start":1668799945878,"name":"GET 200 http://vemser-dbc.dbccompany.com.br:39000/vemser/dbc-pessoa-api/pessoa","stop":1668799945936},{"status":"passed","statusDetails":{},"stage":"finished","steps":[],"attachments":[],"parameters":[],"start":1668799945936,"name":"as (\"response\")","stop":1668799945936},{"status":"passed","statusDetails":{},"stage":"finished","steps":[],"attachments":[],"parameters":[],"start":1668799945937,"name":"get @response","stop":1668799945941},{"status":"passed","statusDetails":{},"stage":"finished","steps":[],"attachments":[],"parameters":[{"name":"actual","value":200},{"name":"expected","value":200}],"start":1668799945941,"name":"assert expected **200** to equal **200**","stop":1668799945941},{"status":"passed","statusDetails":{},"stage":"finished","steps":[],"attachments":[],"parameters":[{"name":"actual","value":"{\n  \"totalElements\": 324,\n  \"totalPages\": 17,\n  \"page\": 0,\n  \"size\": 20,\n  \"content\": [\n    {\n      \"nome\": \"Nome Teste Cypress\",\n      \"dataNascimento\": \"2022-11-11\",\n      \"cpf\": \"03336669990\",\n      \"email\": \"nome.teste@dbccompany.com.br\",\n      \"idPessoa\": 5518\n    },\n    {\n      \"nome\": \"Alain\",\n      \"dataNascimento\": \"2003-12-08\",\n      \"cpf\": \"1233563152\",\n      \"email\": \"batman@gmail.com\",\n      \"idPessoa\": 5503\n    },\n    {\n      \"nome\": \"Alain123\",\n      \"dataNascimento\": \"2003-12-08\",\n      \"cpf\": \"1233563152\",\n      \"email\": \"batman@gmail.com\",\n      \"idPessoa\": 5510\n    },\n    {\n      \"nome\": \"Nome Teste Cypress\",\n      \"dataNascimento\": \"2022-11-11\",\n      \"cpf\": \"03336669990\",\n      \"email\": \"nome.teste@dbccompany.com.br\",\n      \"idPessoa\": 5667\n    },\n    {\n      \"nome\": \"Alain\",\n      \"dataNascimento\": \"2003-12-08\",\n      \"cpf\": \"1233563152\",\n      \"email\": \"batman@gmail.com\",\n      \"idPessoa\": 5516\n    },\n    {\n      \"nome\": \"Nome Teste Cypress\",\n      \"dataNascimento\": \"2022-11-11\",\n      \"cpf\": \"03336669990\",\n      \"email\": \"nome.teste@dbccompany.com.br\",\n      \"idPessoa\": 5517\n    },\n    {\n      \"nome\": \"Gabriel Luppi\",\n      \"dataNascimento\": \"2003-12-08\",\n      \"cpf\": \"56448825002\",\n      \"email\": \"gabriel.luppi@dbccompany.com.br\",\n      \"idPessoa\": 5519\n    },\n    {\n      \"nome\": \"Nome Teste Cypress\",\n      \"dataNascimento\": \"2022-11-11\",\n      \"cpf\": \"03336669990\",\n      \"email\": \"nome.teste@dbccompany.com.br\",\n      \"idPessoa\": 5520\n    },\n    {\n      \"nome\": \"User Tester QA\",\n      \"dataNascimento\": \"2001-01-01\",\n      \"cpf\": \"12345665421\",\n      \"email\": \"user.tester.qa@dbccompany.com.br\",\n      \"idPessoa\": 6027\n    },\n    {\n      \"nome\": \"Rawad\",\n      \"dataNascimento\": \"1991-10-19\",\n      \"cpf\": \"11111122111\",\n      \"email\": \"gabriel.luppi@dbccompany.com.br\",\n      \"idPessoa\": 5712\n    },\n    {\n      \"nome\": \"User Tester QA\",\n      \"dataNascimento\": \"2001-01-01\",\n      \"cpf\": \"12345665421\",\n      \"email\": \"user.tester.qa@dbccompany.com.br\",\n      \"idPessoa\": 5672\n    },\n    {\n      \"nome\": \"Igor Dinho\",\n      \"dataNascimento\": \"1985-07-08\",\n      \"cpf\": \"741258\",\n      \"email\": \"igor.dinho@dbccompany.com.br\",\n      \"idPessoa\": 5876\n    },\n    {\n      \"nome\": \"Nome Teste Cypress\",\n      \"dataNascimento\": \"2022-11-11\",\n      \"cpf\": \"03336669990\",\n      \"email\": \"nome.teste@dbccompany.com.br\",\n      \"idPessoa\": 5839\n    },\n    {\n      \"nome\": \"User Tester QA\",\n      \"dataNascimento\": \"2001-01-01\",\n      \"cpf\": \"12345665421\",\n      \"email\": \"user.tester.qa@dbccompany.com.br\",\n      \"idPessoa\": 5844\n    },\n    {\n      \"nome\": \"User Tester QA\",\n      \"dataNascimento\": \"2001-01-01\",\n      \"cpf\": \"12345665421\",\n      \"email\": \"user.tester.qa@dbccompany.com.br\",\n      \"idPessoa\": 5882\n    },\n    {\n      \"nome\": \"Nome Teste Cypress\",\n      \"dataNascimento\": \"2022-11-11\",\n      \"cpf\": \"03336669990\",\n      \"email\": \"nome.teste@dbccompany.com.br\",\n      \"idPessoa\": 5763\n    },\n    {\n      \"nome\": \"User Tester QA\",\n      \"dataNascimento\": \"2001-01-01\",\n      \"cpf\": \"12345665421\",\n      \"email\": \"user.tester.qa@dbccompany.com.br\",\n      \"idPessoa\": 5768\n    },\n    {\n      \"nome\": \"Rawad\",\n      \"dataNascimento\": \"1991-10-19\",\n      \"cpf\": \"11111122111\",\n      \"email\": \"gabriel.luppi@dbccompany.com.br\",\n      \"idPessoa\": 5787\n    },\n    {\n      \"nome\": \"Rawad\",\n      \"dataNascimento\": \"1991-10-19\",\n      \"cpf\": \"11111122111\",\n      \"email\": \"gabriel.luppi@dbccompany.com.br\",\n      \"idPessoa\": 6003\n    },\n    {\n      \"nome\": \"User Tester QA\",\n      \"dataNascimento\": \"2001-01-01\",\n      \"cpf\": \"12345665421\",\n      \"email\": \"user.tester.qa@dbccompany.com.br\",\n      \"idPessoa\": 6011\n    }\n  ]\n}"}],"start":1668799945941,"name":"assert expected **{ Object (totalElements, totalPages, ...) }** not to be empty","stop":1668799945941}],"attachments":[],"parameters":[],"labels":[{"name":"suite","value":"Pessoa"}],"links":[],"start":1668799945876,"name":"GET - Listar pessoas","fullName":"GET - Listar pessoas","stop":1668799945942}