{"uuid":"fb7f7929-6b30-4707-b195-df529d523c08","historyId":"36bcd067cede5e6f22a4911800040888","status":"passed","statusDetails":{},"stage":"finished","steps":[{"status":"passed","statusDetails":{},"stage":"finished","steps":[],"attachments":[],"parameters":[],"start":1668800676347,"name":"GET 200 http://vemser-dbc.dbccompany.com.br:39000/vemser/dbc-pessoa-api/endereco","stop":1668800676420},{"status":"passed","statusDetails":{},"stage":"finished","steps":[],"attachments":[],"parameters":[],"start":1668800676420,"name":"as (\"response\")","stop":1668800676420},{"status":"passed","statusDetails":{},"stage":"finished","steps":[],"attachments":[],"parameters":[],"start":1668800676420,"name":"get @response","stop":1668800676421},{"status":"passed","statusDetails":{},"stage":"finished","steps":[],"attachments":[],"parameters":[{"name":"actual","value":"{\n  \"totalElements\": 95,\n  \"totalPages\": 5,\n  \"page\": 0,\n  \"size\": 20,\n  \"content\": [\n    {\n      \"idPessoa\": 4091,\n      \"tipo\": \"COMERCIAL\",\n      \"logradouro\": \"Rua Deputado Álvares Florence\",\n      \"numero\": 1302,\n      \"complemento\": \"ap 504\",\n      \"cep\": \"09890530\",\n      \"cidade\": \"São Bernardo do Campo\",\n      \"estado\": \"SP\",\n      \"pais\": \"Brasil\",\n      \"idEndereco\": 343\n    },\n    {\n      \"idPessoa\": 4091,\n      \"tipo\": \"COMERCIAL\",\n      \"logradouro\": \"Rua Deputado Álvares Florence\",\n      \"numero\": 1302,\n      \"complemento\": \"ap 504\",\n      \"cep\": \"09890530\",\n      \"cidade\": \"São Bernardo do Campo\",\n      \"estado\": \"SP\",\n      \"pais\": \"Brasil\",\n      \"idEndereco\": 346\n    },\n    {\n      \"idPessoa\": 4091,\n      \"tipo\": \"COMERCIAL\",\n      \"logradouro\": \"Rua Deputado Álvares Florence\",\n      \"numero\": 1302,\n      \"complemento\": \"ap 504\",\n      \"cep\": \"09890530\",\n      \"cidade\": \"São Bernardo do Campo\",\n      \"estado\": \"SP\",\n      \"pais\": \"Brasil\",\n      \"idEndereco\": 349\n    },\n    {\n      \"idPessoa\": 4091,\n      \"tipo\": \"COMERCIAL\",\n      \"logradouro\": \"Rua Deputado Álvares Florence\",\n      \"numero\": 1302,\n      \"complemento\": \"ap 504\",\n      \"cep\": \"09890530\",\n      \"cidade\": \"São Bernardo do Campo\",\n      \"estado\": \"SP\",\n      \"pais\": \"Brasil\",\n      \"idEndereco\": 352\n    },\n    {\n      \"idPessoa\": 4091,\n      \"tipo\": \"COMERCIAL\",\n      \"logradouro\": \"Rua Deputado Álvares Florence\",\n      \"numero\": 1302,\n      \"complemento\": \"ap 504\",\n      \"cep\": \"09890530\",\n      \"cidade\": \"São Bernardo do Campo\",\n      \"estado\": \"SP\",\n      \"pais\": \"Brasil\",\n      \"idEndereco\": 355\n    },\n    {\n      \"idPessoa\": 4091,\n      \"tipo\": \"COMERCIAL\",\n      \"logradouro\": \"Rua Deputado Álvares Florence\",\n      \"numero\": 1302,\n      \"complemento\": \"ap 504\",\n      \"cep\": \"09890530\",\n      \"cidade\": \"teste\",\n      \"estado\": \"SP\",\n      \"pais\": \"Brasil\",\n      \"idEndereco\": 358\n    },\n    {\n      \"idPessoa\": 4091,\n      \"tipo\": \"COMERCIAL\",\n      \"logradouro\": \"Rua Deputado Álvares Florence\",\n      \"numero\": 1302,\n      \"complemento\": \"ap 504\",\n      \"cep\": \"09890530\",\n      \"cidade\": \"teste\",\n      \"estado\": \"SP\",\n      \"pais\": \"Brasil\",\n      \"idEndereco\": 361\n    },\n    {\n      \"idPessoa\": 4091,\n      \"tipo\": \"COMERCIAL\",\n      \"logradouro\": \"Rua Deputado Álvares Florence\",\n      \"numero\": 1302,\n      \"complemento\": \"ap 504\",\n      \"cep\": \"09890530\",\n      \"cidade\": \"teste\",\n      \"estado\": \"SP\",\n      \"pais\": \"Brasil\",\n      \"idEndereco\": 364\n    },\n    {\n      \"idPessoa\": 4091,\n      \"tipo\": \"COMERCIAL\",\n      \"logradouro\": \"Rua Deputado Álvares Florence\",\n      \"numero\": 1302,\n      \"complemento\": \"ap 504\",\n      \"cep\": \"09890530\",\n      \"cidade\": \"teste\",\n      \"estado\": \"SP\",\n      \"pais\": \"Brasil\",\n      \"idEndereco\": 432\n    },\n    {\n      \"idPessoa\": 4091,\n      \"tipo\": \"COMERCIAL\",\n      \"logradouro\": \"Rua Deputado Álvares Florence\",\n      \"numero\": 1302,\n      \"complemento\": \"ap 504\",\n      \"cep\": \"09890530\",\n      \"cidade\": \"teste\",\n      \"estado\": \"SP\",\n      \"pais\": \"Brasil\",\n      \"idEndereco\": 436\n    },\n    {\n      \"idPessoa\": 4091,\n      \"tipo\": \"COMERCIAL\",\n      \"logradouro\": \"Rua Deputado Álvares Florence\",\n      \"numero\": 1302,\n      \"complemento\": \"ap 504\",\n      \"cep\": \"09890530\",\n      \"cidade\": \"teste\",\n      \"estado\": \"SP\",\n      \"pais\": \"Brasil\",\n      \"idEndereco\": 440\n    },\n    {\n      \"idPessoa\": 4091,\n      \"tipo\": \"COMERCIAL\",\n      \"logradouro\": \"Rua Deputado Álvares Florence\",\n      \"numero\": 1302,\n      \"complemento\": \"ap 504\",\n      \"cep\": \"09890530\",\n      \"cidade\": \"teste\",\n      \"estado\": \"SP\",\n      \"pais\": \"Brasil\",\n      \"idEndereco\": 444\n    },\n    {\n      \"idPessoa\": 4091,\n      \"tipo\": \"COMERCIAL\",\n      \"logradouro\": \"Rua Deputado Álvares Florence\",\n      \"numero\": 1302,\n      \"complemento\": \"ap 504\",\n      \"cep\": \"09890530\",\n      \"cidade\": \"teste\",\n      \"estado\": \"SP\",\n      \"pais\": \"Brasil\",\n      \"idEndereco\": 448\n    },\n    {\n      \"idPessoa\": 4091,\n      \"tipo\": \"COMERCIAL\",\n      \"logradouro\": \"Rua Deputado Álvares Florence\",\n      \"numero\": 1302,\n      \"complemento\": \"ap 504\",\n      \"cep\": \"09890530\",\n      \"cidade\": \"teste\",\n      \"estado\": \"SP\",\n      \"pais\": \"Brasil\",\n      \"idEndereco\": 452\n    },\n    {\n      \"idPessoa\": 4091,\n      \"tipo\": \"COMERCIAL\",\n      \"logradouro\": \"Rua Deputado Álvares Florence\",\n      \"numero\": 1302,\n      \"complemento\": \"ap 504\",\n      \"cep\": \"09890530\",\n      \"cidade\": \"teste\",\n      \"estado\": \"SP\",\n      \"pais\": \"Brasil\",\n      \"idEndereco\": 456\n    },\n    {\n      \"idPessoa\": 4091,\n      \"tipo\": \"COMERCIAL\",\n      \"logradouro\": \"Rua Deputado Álvares Florence\",\n      \"numero\": 1302,\n      \"complemento\": \"ap 504\",\n      \"cep\": \"09890530\",\n      \"cidade\": \"teste\",\n      \"estado\": \"SP\",\n      \"pais\": \"Brasil\",\n      \"idEndereco\": 462\n    },\n    {\n      \"idPessoa\": 4091,\n      \"tipo\": \"COMERCIAL\",\n      \"logradouro\": \"Rua Deputado Álvares Florence\",\n      \"numero\": 1302,\n      \"complemento\": \"ap 504\",\n      \"cep\": \"09890530\",\n      \"cidade\": \"teste\",\n      \"estado\": \"SP\",\n      \"pais\": \"Brasil\",\n      \"idEndereco\": 466\n    },\n    {\n      \"idPessoa\": 4091,\n      \"tipo\": \"COMERCIAL\",\n      \"logradouro\": \"Rua Deputado Álvares Florence\",\n      \"numero\": 1302,\n      \"complemento\": \"ap 504\",\n      \"cep\": \"09890530\",\n      \"cidade\": \"teste\",\n      \"estado\": \"SP\",\n      \"pais\": \"Brasil\",\n      \"idEndereco\": 470\n    },\n    {\n      \"idPessoa\": 4091,\n      \"tipo\": \"COMERCIAL\",\n      \"logradouro\": \"Rua Deputado Álvares Florence\",\n      \"numero\": 1302,\n      \"complemento\": \"ap 504\",\n      \"cep\": \"09890530\",\n      \"cidade\": \"teste\",\n      \"estado\": \"SP\",\n      \"pais\": \"Brasil\",\n      \"idEndereco\": 474\n    },\n    {\n      \"idPessoa\": 4091,\n      \"tipo\": \"COMERCIAL\",\n      \"logradouro\": \"Rua Deputado Álvares Florence\",\n      \"numero\": 1302,\n      \"complemento\": \"ap 504\",\n      \"cep\": \"09890530\",\n      \"cidade\": \"teste\",\n      \"estado\": \"SP\",\n      \"pais\": \"Brasil\",\n      \"idEndereco\": 478\n    }\n  ]\n}"}],"start":1668800676423,"name":"assert expected **{ Object (totalElements, totalPages, ...) }** not to be empty","stop":1668800676423},{"status":"passed","statusDetails":{},"stage":"finished","steps":[],"attachments":[],"parameters":[{"name":"actual","value":200},{"name":"expected","value":200}],"start":1668800676423,"name":"assert expected **200** to equal **200**","stop":1668800676423}],"attachments":[],"parameters":[],"labels":[{"name":"suite","value":"Endereco"}],"links":[],"start":1668800676338,"name":"GET - Listar enderecos","fullName":"GET - Listar enderecos","stop":1668800676423}